…
df_all_yrs <- right_join(df, all_yrs) |> arrange(TREE_COMPOSITE_ID, YEAR)
```

    Joining with `by = join_by(TREE_COMPOSITE_ID, YEAR)`

``` r
df_all_yrs
```

    # A tibble: 54 × 6
       TREE_COMPOSITE_ID  YEAR    HT STATUSCD DECAYCD MORTYR
                   <dbl> <dbl> <dbl>    <dbl>   <dbl>  <dbl>
     1                 1  2000    20        1      NA     NA
     2                 1  2001    NA       NA      NA     NA
     3                 1  2002    NA       NA      NA     NA
     4                 1  2003    NA       NA      NA     NA
     5                 1  2004    NA       NA      NA     NA
     6                 1  2005    30        1      NA     NA
     7                 1  2006    NA       NA      NA     NA
     8                 1  2007    NA       NA      NA     NA
     9                 1  2008    NA       NA      NA     NA
    10                 1  2009    NA       NA      NA     NA
    # ℹ 44 more rows
…
``` r
source(here("R/inter_extra_polate.R"))
source(here("R/step_interp.R"))
```

``` r
df_interpolated <- df_all_yrs |> 
  group_by(TREE_COMPOSITE_ID) |> 
  mutate(HT_interp = inter_extra_polate(x = YEAR, y = HT), .after = HT)
df_interpolated
```

    # A tibble: 54 × 7
    # Groups:   TREE_COMPOSITE_ID [4]
       TREE_COMPOSITE_ID  YEAR    HT HT_interp STATUSCD DECAYCD MORTYR
                   <dbl> <dbl> <dbl>     <dbl>    <dbl>   <dbl>  <dbl>
     1                 1  2000    20      20          1      NA     NA
     2                 1  2001    NA      22         NA      NA     NA
     3                 1  2002    NA      24         NA      NA     NA
     4                 1  2003    NA      26         NA      NA     NA
     5                 1  2004    NA      28         NA      NA     NA
     6                 1  2005    30      30          1      NA     NA
     7                 1  2006    NA      31.4       NA      NA     NA
     8                 1  2007    NA      32.8       NA      NA     NA
     9                 1  2008    NA      34.2       NA      NA     NA
    10                 1  2009    NA      35.6       NA      NA     NA
    # ℹ 44 more rows

Yeah, that seems to have done it!

Now let’s try a categorical variable like `STATUSCD` and `DECAYCD`

``` r
df_interpolated <- df_interpolated |> 
  group_by(TREE_COMPOSITE_ID) |> 
  mutate(STATUSCD_interp = step_interp(STATUSCD), .after = STATUSCD) |> 
  mutate(DECAYCD_interp = step_interp(DECAYCD), .after = DECAYCD)
df_interpolated
```

    # A tibble: 54 × 9
    # Groups:   TREE_COMPOSITE_ID [4]
       TREE_COMPOSITE_ID  YEAR    HT HT_interp STATUSCD STATUSCD_interp DECAYCD
                   <dbl> <dbl> <dbl>     <dbl>    <dbl>           <dbl>   <dbl>
     1                 1  2000    20      20          1               1      NA
     2                 1  2001    NA      22         NA               1      NA
     3                 1  2002    NA      24         NA               1      NA
     4                 1  2003    NA      26         NA               1      NA
     5                 1  2004    NA      28         NA               1      NA
     6                 1  2005    30      30          1               1      NA
     7                 1  2006    NA      31.4       NA               1      NA
     8                 1  2007    NA      32.8       NA               1      NA
     9                 1  2008    NA      34.2       NA               1      NA
    10                 1  2009    NA      35.6       NA               1      NA
    # ℹ 44 more rows
    # ℹ 2 more variables: DECAYCD_interp <dbl>, MORTYR <dbl>
…
    Warning: There were 4 warnings in `mutate()`.
    The first warning was:
    ℹ In argument: `first_dead = if_else(...)`.
    ℹ In group 2: `TREE_COMPOSITE_ID = 2`.
    Caused by warning in `max()`:
    ! no non-missing arguments to max; returning -Inf
    ℹ Run `dplyr::last_dplyr_warnings()` to see the 3 remaining warnings.

    # A tibble: 54 × 10
    # Groups:   TREE_COMPOSITE_ID [4]
       TREE_COMPOSITE_ID  YEAR    HT HT_interp STATUSCD STATUSCD_interp DECAYCD
                   <dbl> <dbl> <dbl>     <dbl>    <dbl>           <dbl>   <dbl>
     1                 1  2000    20      20          1               1      NA
     2                 1  2001    NA      22         NA               1      NA
     3                 1  2002    NA      24         NA               1      NA
     4                 1  2003    NA      26         NA               1      NA
     5                 1  2004    NA      28         NA               1      NA
     6                 1  2005    30      30          1               1      NA
     7                 1  2006    NA      31.4       NA               1      NA
     8                 1  2007    NA      32.8       NA               1      NA
     9                 1  2008    NA      34.2       NA               1      NA
    10                 1  2009    NA      35.6       NA               1      NA
    # ℹ 44 more rows
    # ℹ 3 more variables: DECAYCD_interp <dbl>, MORTYR <dbl>, first_dead <dbl>
…
>
> Taking a look at trees with a recorded `MORTYR`. One obvious question
> is what to do with trees that are recorded as alive in the inventory
> that takes place in their `MORTYR`.
> https://github.com/mekevans/forestTIME-builder/issues/61
>
> ``` r
> tree |> 
>   group_by(TREE_COMPOSITE_ID) |> 
>   filter(any(!is.na(MORTYR)) & n() > 1) |> 
>   arrange(TREE_COMPOSITE_ID, INVYR) |> 
>   select(TREE_COMPOSITE_ID, INVYR, MORTYR, STATUSCD, DECAYCD, STANDING_DEAD_CD, everything())
> ```
>
>     # A tibble: 3,159 × 198
>     # Groups:   TREE_COMPOSITE_ID [1,516]
>        TREE_COMPOSITE_ID  INVYR MORTYR STATUSCD DECAYCD STANDING_DEAD_CD ACTUALHT
>        <chr>              <int>  <int>    <int>   <int>            <int>    <int>
>      1 8_1_119_84418_2_20  2010     NA        1      NA               NA        5
>      2 8_1_119_84418_2_20  2020   2013        2      NA                0       NA
>      3 8_1_119_85488_1_1   2006     NA        1      NA               NA       44
>      4 8_1_119_85488_1_1   2016   2010        3      NA               NA       NA
>      5 8_1_119_85488_2_2   2006     NA        1      NA               NA       36
>      6 8_1_119_85488_2_2   2016   2008        2       2                1       35
>      7 8_1_119_85488_4_3   2006     NA        1      NA               NA       31
>      8 8_1_119_85488_4_3   2016   2010        3      NA               NA       NA
>      9 8_1_119_85488_4_4   2006     NA        1      NA               NA       31
>     10 8_1_119_85488_4_4   2016   2010        3      NA               NA       NA
>     # ℹ 3,149 more rows
>     # ℹ 191 more variables: HT <int>, PLOT_COMPOSITE_ID <chr>, TREE_CN <chr>,
>     #   PLT_CN <chr>, PREV_TRE_CN <chr>, STATECD <int>, UNITCD <int>,
>     #   COUNTYCD <int>, PLOT <int>, SUBP <int>, TREE <int>, CONDID <int>,
>     #   PREVCOND <int>, SPCD <dbl>, SPGRPCD <int>, DIA <dbl>, DIAHTCD <int>,
>     #   HTCD <int>, TREECLCD <int>, CR <int>, CCLCD <int>, TREEGRCD <int>,
>     #   AGENTCD <int>, CULL <int>, DAMLOC1 <int>, DAMTYP1 <int>, DAMSEV1 <int>, …
…
tree_annual <- 
  right_join(
    tree_to_interpolate,
    all_yrs,
    by = join_by(TREE_COMPOSITE_ID, PLOT_COMPOSITE_ID, SPCD, INVYR == YEAR)
  ) |>
  arrange(TREE_COMPOSITE_ID, INVYR) |> 
  rename(YEAR = INVYR)
tree_annual
```

    # A tibble: 84,089 × 15
    # Groups:   TREE_COMPOSITE_ID [8,465]
       TREE_COMPOSITE_ID PLOT_COMPOSITE_ID  SPCD  YEAR   DIA    HT ACTUALHT    CR
       <chr>             <chr>             <dbl> <dbl> <dbl> <int>    <int> <int>
     1 8_1_119_80086_1_6 8_1_119_80086       122  2002   7.7    61       61    24
     2 8_1_119_80086_1_6 8_1_119_80086       122  2003  NA      NA       NA    NA
     3 8_1_119_80086_1_6 8_1_119_80086       122  2004  NA      NA       NA    NA
     4 8_1_119_80086_1_6 8_1_119_80086       122  2005  NA      NA       NA    NA
     5 8_1_119_80086_1_6 8_1_119_80086       122  2006  NA      NA       NA    NA
     6 8_1_119_80086_1_6 8_1_119_80086       122  2007   8      64       64    30
     7 8_1_119_80086_1_6 8_1_119_80086       122  2008  NA      NA       NA    NA
     8 8_1_119_80086_1_6 8_1_119_80086       122  2009  NA      NA       NA    NA
     9 8_1_119_80086_1_6 8_1_119_80086       122  2010  NA      NA       NA    NA
    10 8_1_119_80086_1_6 8_1_119_80086       122  2011  NA      NA       NA    NA
    # ℹ 84,079 more rows
    # ℹ 7 more variables: CULL <int>, STATUSCD <int>, MORTYR <int>, DECAYCD <int>,
    #   STANDING_DEAD_CD <int>, STDORGCD <dbl>, COND_STATUS_CD <int>
…
tree_interpolated <- 
  tree_annual |> 
  group_by(TREE_COMPOSITE_ID) |> 
  mutate(
    #linearly interpolate/extrapolate
    across(c(ACTUALHT, DIA, HT, CULL, CR),
           \(var) inter_extra_polate(x = YEAR, y = var)),
    #interpolate to switch at midpoint (rounded up)
    across(c(STATUSCD, DECAYCD, STANDING_DEAD_CD, STDORGCD, COND_STATUS_CD), 
           step_interp)
  ) |> ungroup()
tree_interpolated
```

    # A tibble: 84,089 × 15
       TREE_COMPOSITE_ID PLOT_COMPOSITE_ID  SPCD  YEAR   DIA    HT ACTUALHT    CR
       <chr>             <chr>             <dbl> <dbl> <dbl> <dbl>    <dbl> <dbl>
     1 8_1_119_80086_1_6 8_1_119_80086       122  2002  7.7   61       61    24  
     2 8_1_119_80086_1_6 8_1_119_80086       122  2003  7.76  61.6     61.6  25.2
     3 8_1_119_80086_1_6 8_1_119_80086       122  2004  7.82  62.2     62.2  26.4
     4 8_1_119_80086_1_6 8_1_119_80086       122  2005  7.88  62.8     62.8  27.6
     5 8_1_119_80086_1_6 8_1_119_80086       122  2006  7.94  63.4     63.4  28.8
     6 8_1_119_80086_1_6 8_1_119_80086       122  2007  8     64       64    30  
     7 8_1_119_80086_1_6 8_1_119_80086       122  2008  8.1   63.5     63.5  31  
     8 8_1_119_80086_1_6 8_1_119_80086       122  2009  8.2   63       63    32  
     9 8_1_119_80086_1_6 8_1_119_80086       122  2010  8.3   62.5     62.5  33  
    10 8_1_119_80086_1_6 8_1_119_80086       122  2011  8.4   62       62    34  
    # ℹ 84,079 more rows
    # ℹ 7 more variables: CULL <dbl>, STATUSCD <int>, MORTYR <int>, DECAYCD <int>,
    #   STANDING_DEAD_CD <int>, STDORGCD <dbl>, COND_STATUS_CD <int>
…
Inspect some trees

``` r
tree_interpolated_mortyr |>
  filter(any(!is.na(MORTYR))) |>
  filter(length(unique(HT)) > 2) |>
  filter(all(c(0, 1) %in% STANDING_DEAD_CD)) |>
  arrange(TREE_COMPOSITE_ID, YEAR) |>
  select(TREE_COMPOSITE_ID, YEAR, MORTYR, first_dead, HT, STATUSCD, STANDING_DEAD_CD, DECAYCD)
```

    # A tibble: 144 × 8
    # Groups:   TREE_COMPOSITE_ID [9]
       TREE_COMPOSITE_ID  YEAR MORTYR first_dead    HT STATUSCD STANDING_DEAD_CD
       <chr>             <dbl>  <int>      <dbl> <dbl>    <dbl>            <int>
     1 8_1_19_89224_3_24  2003     NA       2007  NA          1               NA
     2 8_1_19_89224_3_24  2004     NA       2007  NA          1               NA
     3 8_1_19_89224_3_24  2005     NA       2007  NA          1               NA
     4 8_1_19_89224_3_24  2006     NA       2007  45.2        2                1
     5 8_1_19_89224_3_24  2007     NA       2007  45.6        2                1
     6 8_1_19_89224_3_24  2008   2007       2007  46          2                1
     7 8_1_19_89224_3_24  2009     NA       2007  46.4        2                1
     8 8_1_19_89224_3_24  2010     NA       2007  46.8        2                1
     9 8_1_19_89224_3_24  2011     NA       2007  47.2        2                1
    10 8_1_19_89224_3_24  2012     NA       2007  47.6        2                1
    # ℹ 134 more rows
    # ℹ 1 more variable: DECAYCD <int>
…
>
> It seems pretty clear that DIA shouldn’t change after a tree’s death,
> but would HT and ACTUALHT change for a standing dead tree? Probably?
> However, we don’t want to extrapolate negative (or even 0?) values,
> and the tree shouldn’t *grow* after death, right?
>
> ``` r
> tree |> 
>   filter(any(lag(ACTUALHT) > ACTUALHT)) |> #trees that shrank
>   filter(sum(STATUSCD == 2) > 1) |> # and were recorded dead at least twice
>   select(TREE_COMPOSITE_ID, INVYR, STATUSCD, STANDING_DEAD_CD, DIA, HT, ACTUALHT) |> 
>   arrange(TREE_COMPOSITE_ID, INVYR)
> ```
>
>     # A tibble: 60 × 7
>     # Groups:   TREE_COMPOSITE_ID [20]
>        TREE_COMPOSITE_ID INVYR STATUSCD STANDING_DEAD_CD   DIA    HT ACTUALHT
>        <chr>             <int>    <int>            <int> <dbl> <int>    <int>
>      1 8_1_93_80958_4_1   2004        1               NA  10.4    26       26
>      2 8_1_93_80958_4_1   2009        2                1  10.5    22       22
>      3 8_1_93_80958_4_1   2019        2                0  NA      NA       NA
>      4 8_2_15_87731_1_16  2003        1               NA   6.2    34       34
>      5 8_2_15_87731_1_16  2008        2                1   6.3    32       32
>      6 8_2_15_87731_1_16  2018        2                1   6.2    32       32
>      7 8_2_27_88410_1_2   2004        1               NA  11      48       48
>      8 8_2_27_88410_1_2   2009        2                1  10.8    52       52
>      9 8_2_27_88410_1_2   2019        2                1  10.6    47       47
>     10 8_2_27_88410_4_4   2004        1               NA   6      33       33
>     # ℹ 50 more rows
…
