Calculating Annualized Carbon Estimates
…
First we need to expand it to include all years between surveys.

all_yrs <-
  df |>
  group_by(TREE_COMPOSITE_ID) |>
  expand(YEAR = full_seq(YEAR, 1))

df_all_yrs <- right_join(df, all_yrs) |> arrange(TREE_COMPOSITE_ID, YEAR)

Joining with `by = join_by(TREE_COMPOSITE_ID, YEAR)`

df_all_yrs

# A tibble: 38 × 4
   TREE_COMPOSITE_ID  YEAR    HT STATUSCD
               <dbl> <dbl> <dbl>    <dbl>
 1                 1  2000    20        1
 2                 1  2001    NA       NA
 3                 1  2002    NA       NA
 4                 1  2003    NA       NA
 5                 1  2004    NA       NA
 6                 1  2005    30        1
 7                 1  2006    NA       NA
 8                 1  2007    NA       NA
 9                 1  2008    NA       NA
10                 1  2009    NA       NA
# ℹ 28 more rows
…
interpolate <- function(x, y) {
  if (sum(!is.na(y)) < 2){
    return(y)
  } else {
    approx(x, y, xout = x)$y
  }
}

df_interpolated <- df_all_yrs |> 
  group_by(TREE_COMPOSITE_ID) |> 
  mutate(HT_interpolated = interpolate(x = YEAR, y = HT))
df_interpolated

# A tibble: 38 × 5
# Groups:   TREE_COMPOSITE_ID [3]
   TREE_COMPOSITE_ID  YEAR    HT STATUSCD HT_interpolated
               <dbl> <dbl> <dbl>    <dbl>           <dbl>
 1                 1  2000    20        1            20  
 2                 1  2001    NA       NA            22  
 3                 1  2002    NA       NA            24  
 4                 1  2003    NA       NA            26  
 5                 1  2004    NA       NA            28  
 6                 1  2005    30        1            30  
 7                 1  2006    NA       NA            31.4
 8                 1  2007    NA       NA            32.8
 9                 1  2008    NA       NA            34.2
10                 1  2009    NA       NA            35.6
# ℹ 28 more rows
…
all_yrs <- tree |> 
  group_by(TREE_COMPOSITE_ID) |>
  expand(YEAR = full_seq(INVYR, 1))

tree_annual <- 
  right_join(
    tree |> select(TREE_COMPOSITE_ID, INVYR, ACTUALHT, HT, DIA, STATUSCD, MORTYR),
    all_yrs,
    by = join_by(TREE_COMPOSITE_ID, INVYR == YEAR)
  ) |>
  arrange(TREE_COMPOSITE_ID, INVYR) |> 
  rename(YEAR = INVYR)
tree_annual

# A tibble: 49,578 × 7
# Groups:   TREE_COMPOSITE_ID [4,798]
   TREE_COMPOSITE_ID  YEAR ACTUALHT    HT   DIA STATUSCD MORTYR
   <chr>             <dbl>    <dbl> <dbl> <dbl>    <dbl>  <dbl>
 1 44_1_1_228_1_1     2004       30    30   5.9        1     NA
 2 44_1_1_228_1_1     2005       NA    NA  NA         NA     NA
 3 44_1_1_228_1_1     2006       NA    NA  NA         NA     NA
 4 44_1_1_228_1_1     2007       NA    NA  NA         NA     NA
 5 44_1_1_228_1_1     2008       35    35   6.4        1     NA
 6 44_1_1_228_1_1     2009       NA    NA  NA         NA     NA
 7 44_1_1_228_1_1     2010       NA    NA  NA         NA     NA
 8 44_1_1_228_1_1     2011       NA    NA  NA         NA     NA
 9 44_1_1_228_1_1     2012       NA    NA  NA         NA     NA
10 44_1_1_228_1_1     2013       35    35   6.8        1     NA
# ℹ 49,568 more rows

Then interpolate with our custom approx() wrapper function, interpolate()

tree_interpolated <- 
  tree_annual |> 
  group_by(TREE_COMPOSITE_ID) |> 
  mutate(
    ACTUALHT = interpolate(x = YEAR, y = ACTUALHT),
    DIA = interpolate(x = YEAR, y = DIA),
    HT = interpolate(x = YEAR, y = HT)
  )
tree_interpolated

# A tibble: 49,578 × 7
# Groups:   TREE_COMPOSITE_ID [4,798]
   TREE_COMPOSITE_ID  YEAR ACTUALHT    HT   DIA STATUSCD MORTYR
   <chr>             <dbl>    <dbl> <dbl> <dbl>    <dbl>  <dbl>
 1 44_1_1_228_1_1     2004     30    30    5.9         1     NA
 2 44_1_1_228_1_1     2005     31.2  31.2  6.02       NA     NA
 3 44_1_1_228_1_1     2006     32.5  32.5  6.15       NA     NA
 4 44_1_1_228_1_1     2007     33.8  33.8  6.28       NA     NA
 5 44_1_1_228_1_1     2008     35    35    6.4         1     NA
 6 44_1_1_228_1_1     2009     35    35    6.48       NA     NA
 7 44_1_1_228_1_1     2010     35    35    6.56       NA     NA
 8 44_1_1_228_1_1     2011     35    35    6.64       NA     NA
 9 44_1_1_228_1_1     2012     35    35    6.72       NA     NA
10 44_1_1_228_1_1     2013     35    35    6.8         1     NA
# ℹ 49,568 more rows
…
44_1_1_91_3_4 was alive for two surveys and then recorded as dead with no height or diameter in a third survey. So, we estimate a mortality year, but can’t interpolate.

failed_to_interpolate <- 
  tree_annualized |> 
  filter(any(is.na(DIA))) |>
  pull(TREE_COMPOSITE_ID) |>
  unique()
tree |> 
  group_by(TREE_COMPOSITE_ID) |> 
  filter(!all(STATUSCD != 1)) |> 
  filter(TREE_COMPOSITE_ID %in% failed_to_interpolate) |>
  arrange(TREE_COMPOSITE_ID, INVYR) |> 
  select(TREE_COMPOSITE_ID, INVYR, STATUSCD, DIA, ACTUALHT, everything())

# A tibble: 4,118 × 198
# Groups:   TREE_COMPOSITE_ID [1,528]
   TREE_COMPOSITE_ID INVYR STATUSCD   DIA ACTUALHT    HT PLOT_COMPOSITE_ID
   <chr>             <dbl>    <dbl> <dbl>    <dbl> <dbl> <chr>            
 1 44_1_1_228_4_7     2004        1   3.2       30    30 44_1_1_228       
 2 44_1_1_228_4_7     2008        2  NA         NA    NA 44_1_1_228       
 3 44_1_1_277_2_1     2007        1   2         17    17 44_1_1_277       
 4 44_1_1_277_2_1     2012        2  NA         NA    NA 44_1_1_277       
 5 44_1_1_91_2_13     2007        1   9.9       51    51 44_1_1_91        
 6 44_1_1_91_2_13     2012        2  NA         NA    NA 44_1_1_91        
 7 44_1_1_91_3_4      2007        1   2.4       25    25 44_1_1_91        
 8 44_1_1_91_3_4      2012        1   2.4       25    25 44_1_1_91        
 9 44_1_1_91_3_4      2018        2  NA         NA    NA 44_1_1_91        
10 44_1_1_91_3_5      2007        1   2.8       28    28 44_1_1_91        
# ℹ 4,108 more rows
# ℹ 191 more variables: TREE_CN <chr>, PLT_CN <chr>, PREV_TRE_CN <chr>,
#   STATECD <dbl>, UNITCD <dbl>, COUNTYCD <dbl>, PLOT <dbl>, SUBP <dbl>,
#   TREE <dbl>, CONDID <dbl>, PREVCOND <dbl>, SPCD <dbl>, SPGRPCD <dbl>,
#   DIAHTCD <dbl>, HTCD <dbl>, TREECLCD <dbl>, CR <dbl>, CCLCD <dbl>,
#   TREEGRCD <dbl>, AGENTCD <dbl>, CULL <dbl>, DAMLOC1 <dbl>, DAMTYP1 <int>,
#   DAMSEV1 <int>, DAMLOC2 <dbl>, DAMTYP2 <int>, DAMSEV2 <int>, …

tree_annualized

# A tibble: 46,751 × 5
# Groups:   TREE_COMPOSITE_ID [4,798]
   TREE_COMPOSITE_ID  YEAR ACTUALHT    HT   DIA
   <chr>             <dbl>    <dbl> <dbl> <dbl>
 1 44_1_1_228_1_1     2004     30    30    5.9 
 2 44_1_1_228_1_1     2005     31.2  31.2  6.02
 3 44_1_1_228_1_1     2006     32.5  32.5  6.15
 4 44_1_1_228_1_1     2007     33.8  33.8  6.28
 5 44_1_1_228_1_1     2008     35    35    6.4 
 6 44_1_1_228_1_1     2009     35    35    6.48
 7 44_1_1_228_1_1     2010     35    35    6.56
 8 44_1_1_228_1_1     2011     35    35    6.64
 9 44_1_1_228_1_1     2012     35    35    6.72
10 44_1_1_228_1_1     2013     35    35    6.8 
# ℹ 46,741 more rows
…
