Working with forestTIME-builder data
…
If you need to bring the dataframe into memory for some reason, you can use collect().

tiny_saplings <- tree |> 
  filter(DIA < 2) |> 
  collect()
tiny_saplings

# A tibble: 1,226 × 198
   TREE_CN    PLT_CN PREV_TRE_CN INVYR STATECD UNITCD COUNTYCD  PLOT  SUBP  TREE
   <chr>      <chr>  <chr>       <int>   <int>  <int>    <int> <int> <int> <int>
 1 654583970… 60135… <NA>         2004      10      1        1    30     3     1
 2 654578730… 60134… <NA>         2004      10      1        1    48     2     2
 3 654578710… 60134… <NA>         2004      10      1        1    48     2     1
 4 654578750… 60134… <NA>         2004      10      1        1    48     2     3
 5 654578770… 60134… <NA>         2004      10      1        1    48     2     4
 6 654578790… 60134… <NA>         2004      10      1        1    48     2     5
 7 654579050… 60134… <NA>         2004      10      1        1    48     3     4
 8 654579070… 60134… <NA>         2004      10      1        1    48     3     5
 9 654579290… 60134… <NA>         2004      10      1        1    48     4     1
10 654579310… 60134… <NA>         2004      10      1        1    48     4     2
# ℹ 1,216 more rows
# ℹ 188 more variables: CONDID <int>, PREVCOND <int>, STATUSCD <int>,
#   SPCD <dbl>, SPGRPCD <int>, DIA <dbl>, DIAHTCD <int>, HT <int>, HTCD <int>,
#   ACTUALHT <int>, TREECLCD <int>, CR <int>, CCLCD <int>, TREEGRCD <int>,
#   AGENTCD <int>, CULL <int>, DAMLOC1 <int>, DAMTYP1 <int>, DAMSEV1 <int>,
#   DAMLOC2 <int>, DAMTYP2 <int>, DAMSEV2 <int>, DECAYCD <int>, STOCKING <dbl>,
#   WDLDSTEM <int>, VOLCFNET <dbl>, VOLCFGRS <dbl>, VOLCSNET <dbl>, …
…
